<?xml version="1.0" encoding="UTF-8"?>
<svg width="99px" height="18px" viewBox="0 0 99 18" version="1.1" xmlns="http://www.w3.org/2000/svg" xmlns:xlink="http://www.w3.org/1999/xlink">
    <!-- Generator: Sketch 52.1 (67048) - http://www.bohemiancoding.com/sketch -->
    <title>logo</title>
    <desc>Created with Sketch.</desc>
    <g id="Pages" stroke="none" stroke-width="1" fill="none" fill-rule="evenodd">
        <g id="Home-page" transform="translate(-80.000000, -19.000000)">
            <g id="nav-bar">
                <g id="logo" transform="translate(80.000000, 19.000000)">
                    <path d="M10.3301642,17.6704615 L0,17.6704615 L0,0.224307692 L10.0812446,0.224307692 L10.0812446,3.09046154 L3.06171132,3.09046154 L3.06171132,7.42707692 L9.33448574,7.42707692 L9.33448574,10.2932308 L3.06171132,10.2932308 L3.06171132,14.8043077 L10.3301642,14.8043077 L10.3301642,17.6704615 Z M26.1531546,0.224307692 L29.7375971,0.224307692 L23.8630941,8.77292308 L29.9616248,17.6704615 L26.3771823,17.6704615 L21.8717372,11.1156923 L17.391184,17.6704615 L13.8067415,17.6704615 L19.9052722,8.77292308 L14.0805531,0.224307692 L17.6649956,0.224307692 L21.946413,6.52984615 L26.1531546,0.224307692 Z" id="EXPANS" fill="#6700FF"></path>
                    <path d="M36.0020741,10.6670769 L36.0020741,17.6704615 L34.6330162,17.6704615 L34.6330162,0.224307692 C35.3133999,0.224307692 36.0186651,0.216000083 36.748833,0.199384615 C37.4790009,0.182769148 38.1925633,0.174461538 38.8895417,0.174461538 C40.0511724,0.174461538 41.0509896,0.323998505 41.8890231,0.623076923 C42.7270567,0.922155342 43.3700926,1.32922819 43.8181502,1.84430769 C44.2662077,2.35938719 44.5898,2.9118432 44.7889367,3.50169231 C44.9880734,4.09154141 45.0876403,4.73538113 45.0876403,5.43323077 C45.0876403,6.94523833 44.5649143,8.20799493 43.5194466,9.22153846 C42.4573843,10.2516975 40.9140981,10.7667692 38.8895417,10.7667692 C37.7445057,10.7667692 36.7820262,10.7335388 36.0020741,10.6670769 Z M39.0140015,1.47046154 C38.4663756,1.47046154 37.4624099,1.48707676 36.0020741,1.52030769 L36.0020741,9.34615385 C37.1968943,9.42923118 38.1427794,9.47076923 38.8397578,9.47076923 C40.3664724,9.47076923 41.5488288,9.10523442 42.3868624,8.37415385 C43.224896,7.64307327 43.6439065,6.65446777 43.6439065,5.40830769 C43.6439065,4.17876308 43.2580849,3.21508041 42.4864302,2.51723077 C41.7147755,1.81938113 40.5573109,1.47046154 39.0140015,1.47046154 Z M48.3275255,17.6704615 L46.9335756,17.6704615 L54.525624,0.0747692308 L55.6457623,0.0747692308 L63.2378107,17.6704615 L61.769185,17.6704615 L59.2302048,11.7387692 L50.8665056,11.7387692 L48.3275255,17.6704615 Z M58.6576897,10.4427692 L55.0483552,1.96892308 L51.4141288,10.4427692 L58.6576897,10.4427692 Z M82.4085516,0.224307692 L82.4085516,17.6704615 L81.3133053,17.6704615 L69.3900555,2.66676923 L69.3900555,17.6704615 L68.0956735,17.6704615 L68.0956735,0.224307692 L69.1909198,0.224307692 L81.1141696,15.2778462 L81.1141696,0.224307692 L82.4085516,0.224307692 Z M97.5467947,13.3338462 C97.5467947,12.5695346 97.3227693,11.9132335 96.8747117,11.3649231 C96.4266541,10.8166126 95.8707392,10.4012322 95.2069502,10.1187692 C94.5431613,9.83630628 93.8213016,9.52477093 93.0413496,9.18415385 C92.2613975,8.84353676 91.5395378,8.50707858 90.8757489,8.17476923 C90.2119599,7.84245988 89.656045,7.34815713 89.2079874,6.69184615 C88.7599299,6.03553518 88.5359044,5.25877372 88.5359044,4.36153846 C88.5359044,3.09876292 88.9922525,2.06031176 89.9049623,1.24615385 C90.8342669,0.415380462 92.0788526,-8.34887715e-14 93.6387566,-8.34887715e-14 C95.6799077,-8.34887715e-14 97.2397884,0.589840255 98.3184455,1.76953846 L97.5716866,2.79138462 C96.5760032,1.79445655 95.2816341,1.296 93.6885406,1.296 C92.5435046,1.296 91.6391057,1.57430491 90.9753167,2.13092308 C90.3115277,2.68754124 89.9796382,3.43107227 89.9796382,4.36153846 C89.9796382,5.10923451 90.2036636,5.75307422 90.6517212,6.29307692 C91.0997788,6.83307962 91.6556937,7.23599867 92.3194827,7.50184615 C92.9832716,7.76769364 93.7051313,8.06261376 94.4850833,8.38661538 C95.2650354,8.710617 95.9868951,9.03876757 96.650684,9.37107692 C97.314473,9.70338628 97.8703879,10.2059966 98.3184455,10.8789231 C98.766503,11.5518495 98.9905285,12.3618414 98.9905285,13.3089231 C98.9905285,14.6713914 98.4595053,15.7763035 97.3974429,16.6236923 C96.3353805,17.4710812 95.0161197,17.8947692 93.4396209,17.8947692 C92.3609639,17.8947692 91.2989174,17.6704638 90.2534498,17.2218462 C89.2245769,16.7399976 88.5027172,16.1252345 88.0878491,15.3775385 L88.9092839,14.4304615 C89.4071256,15.0784648 90.0709046,15.6018442 90.9006408,16.0006154 C91.730377,16.3993866 92.568398,16.5987692 93.414729,16.5987692 C94.5431702,16.5987692 95.513947,16.3080029 96.3270885,15.7264615 C97.14023,15.1615356 97.5467947,14.3640052 97.5467947,13.3338462 Z" id="Combined-Shape" fill-opacity="0.402853261" fill="#000000"></path>
                </g>
            </g>
        </g>
    </g>
</svg>